2022-02-04 08:26:01	접속 캐릭=드러와	계정=ekdrnwkd90	IP=127.0.0.1
2022-02-04 08:27:04	접속 캐릭=메티스	계정=gmlucky	IP=127.0.0.1
2022-02-04 11:03:37	접속 캐릭=네오	계정=chlrjsdn	IP=127.0.0.1
2022-02-04 11:04:08	접속 캐릭=메티스	계정=gmlucky	IP=127.0.0.1
2022-02-04 11:04:23	접속 캐릭=네오	계정=chlrjsdn	IP=127.0.0.1
2022-02-04 11:07:14	접속 캐릭=세요나프레	계정=tjrrjs12	IP=127.0.0.1
