-------------------------------------------------------------------------------
[럭키서버] version 1.0
[럭키서버] 김행운
[럭키서버] 푸들
-------------------------------------------------------------------------------
invalid action code 95
invalid action code 96
invalid action code 97
서버 로딩 시작 : 2021년 04월13일 00시09분00초
-------------------------------------------------------------------------------
 [SERVER IP] => 211.194.13.230
 [SERVER PORT] => 2000
-------------------------------------------------------------------------------
 [배	율] 경험치: x40000.0 / 아데나: x210.0 / 아이템: x35.0
-------------------------------------------------------------------------------
 [인챈트] 무기: +6% / 방어구: +16% / 장신구: +13%
-------------------------------------------------------------------------------
[2021-04-13 00:09:24][127.0.0.1:56141] [접속시도중]:(1/1)
【계정】gmlucky【케릭】메티스【오전】0:9분【IP】127.0.0.1【M】415
게임종료: [메티스] 계정 [gmlucky] IP [127.0.0.1]
[2021-04-13 00:12:48][127.0.0.1:56141] 연결 종료[정상]
-------------------------------------------------------------------------------
[럭키서버] version 1.0
[럭키서버] 김행운
[럭키서버] 푸들
-------------------------------------------------------------------------------
invalid action code 95
invalid action code 96
invalid action code 97
서버 로딩 시작 : 2021년 04월13일 00시15분25초
-------------------------------------------------------------------------------
 [SERVER IP] => 211.194.13.230
 [SERVER PORT] => 2000
-------------------------------------------------------------------------------
 [배	율] 경험치: x40000.0 / 아데나: x210.0 / 아이템: x35.0
-------------------------------------------------------------------------------
 [인챈트] 무기: +6% / 방어구: +16% / 장신구: +13%
-------------------------------------------------------------------------------
-------------------------------------------------------------------------------
[럭키서버] version 1.0
[럭키서버] 김행운
[럭키서버] 푸들
-------------------------------------------------------------------------------
invalid action code 95
invalid action code 96
invalid action code 97
서버 로딩 시작 : 2021년 04월13일 00시28분34초
-------------------------------------------------------------------------------
 [SERVER IP] => 211.194.13.230
 [SERVER PORT] => 2000
-------------------------------------------------------------------------------
 [배	율] 경험치: x40000.0 / 아데나: x210.0 / 아이템: x35.0
-------------------------------------------------------------------------------
 [인챈트] 무기: +6% / 방어구: +16% / 장신구: +13%
-------------------------------------------------------------------------------
[2021-04-13 00:28:55][127.0.0.1:56284] [접속시도중]:(1/1)
【계정】gmlucky【케릭】메티스【오전】0:29분【IP】127.0.0.1【M】475
[2021-04-13 08:14:30][111.7.96.179:11956] [접속시도중]:(1/2)
[2021-04-13 08:14:36][111.7.96.179:11956] 연결 종료[정상]
[2021-04-13 08:14:36][111.7.96.179:13834] [접속시도중]:(1/2)
[2021-04-13 08:14:38][111.7.96.179:13834] 연결 종료[정상]

[2021-04-13 08:14:38][111.7.96.179:14468] [접속시도중]:(1/2)
[2021-04-13 08:14:40][111.7.96.179:14468] 연결 종료[정상]

[2021-04-13 08:14:40][111.7.96.179:15110] [접속시도중]:(1/2)
[2021-04-13 08:14:42][111.7.96.179:15110] 연결 종료[정상]

[2021-04-13 08:14:42][111.7.96.179:15758] [접속시도중]:(1/2)
[2021-04-13 08:14:44][111.7.96.179:15758] 연결 종료[정상]

[2021-04-13 08:14:44][111.7.96.179:16448] [접속시도중]:(1/2)
[2021-04-13 08:14:46][111.7.96.179:16448] 연결 종료[정상]

[2021-04-13 08:14:47][111.7.96.179:17114] [접속시도중]:(1/2)
[2021-04-13 08:14:49][111.7.96.179:17114] 연결 종료[정상]
[2021-04-13 08:14:49][111.7.96.179:17814] [접속시도중]:(1/2)
[2021-04-13 08:14:51][111.7.96.179:17814] 연결 종료[정상]

[2021-04-13 08:14:51][111.7.96.179:18548] [접속시도중]:(1/2)
[2021-04-13 08:14:53][111.7.96.179:18548] 연결 종료[정상]

[2021-04-13 08:14:53][111.7.96.179:19264] [접속시도중]:(1/2)
[2021-04-13 08:15:00][111.7.96.179:19264] 연결 종료[정상]

[2021-04-13 08:15:00][111.7.96.179:21632] [접속시도중]:(1/2)
[2021-04-13 08:15:02][111.7.96.179:21632] 연결 종료[정상]

[2021-04-13 08:15:03][111.7.96.179:22394] [접속시도중]:(1/2)
[2021-04-13 08:15:05][111.7.96.179:22394] 연결 종료[정상]
[2021-04-13 08:15:05][111.7.96.179:23114] [접속시도중]:(1/2)

[2021-04-13 08:15:05][111.7.96.179:23114] ■ 패킷공격(의심) ■

[2021-04-13 08:15:05][111.7.96.179:23114] 연결 종료[정상]

[2021-04-13 08:15:05][111.7.96.179:23218] [접속시도중]:(1/2)
[2021-04-13 08:15:07][111.7.96.179:23218] 연결 종료[정상]

[2021-04-13 08:15:07][111.7.96.179:24466] [접속시도중]:(1/2)
[2021-04-13 08:15:09][111.7.96.179:25500] [접속시도중]:(2/3)

[2021-04-13 08:15:09][111.7.96.179:25500] ■ 패킷공격(의심) ■

[2021-04-13 08:15:09][111.7.96.179:25500] 연결 종료[정상]

[2021-04-13 08:15:10][111.7.96.179:24466] 연결 종료[정상]

[2021-04-13 08:15:10][111.7.96.179:25600] [접속시도중]:(1/2)
[2021-04-13 08:15:17][111.7.96.179:25600] 연결 종료[정상]
[2021-04-13 08:15:17][111.7.96.179:28786] [접속시도중]:(1/2)
[2021-04-13 08:15:19][111.7.96.179:28786] 연결 종료[정상]

[2021-04-13 08:15:19][111.7.96.179:29628] [접속시도중]:(1/2)
[2021-04-13 08:15:21][111.7.96.179:29628] 연결 종료[정상]

[2021-04-13 08:15:21][111.7.96.179:30354] [접속시도중]:(1/2)
[2021-04-13 08:15:23][111.7.96.179:30354] 연결 종료[정상]

[2021-04-13 08:15:23][111.7.96.179:31048] [접속시도중]:(1/2)
[2021-04-13 08:15:25][111.7.96.179:31048] 연결 종료[정상]

[2021-04-13 08:15:25][111.7.96.179:31750] [접속시도중]:(1/2)
[2021-04-13 08:15:27][111.7.96.179:31750] 연결 종료[정상]

[2021-04-13 08:15:28][111.7.96.179:32398] [접속시도중]:(1/2)

[2021-04-13 08:15:28][111.7.96.179:32398] ■ 패킷공격(의심) ■

[2021-04-13 08:15:28][111.7.96.179:32398] 연결 종료[정상]
[2021-04-13 08:15:28][111.7.96.179:32492] [접속시도중]:(1/2)

invalid opcode. [111.7.96.179] op : 217, length : 56 -> kick.(HandShake.)
[2021-04-13 08:15:28][111.7.96.179:32492] 연결 종료[정상]

[2021-04-13 08:15:28][111.7.96.179:32582] [접속시도중]:(1/2)

[2021-04-13 08:15:28][111.7.96.179:32582] ■ 패킷공격(의심) ■

[2021-04-13 08:15:28][111.7.96.179:32582] 연결 종료[정상]

[2021-04-13 08:15:29][111.7.96.179:32676] [접속시도중]:(1/2)
[2021-04-13 08:15:31][111.7.96.179:32676] 연결 종료[정상]
[2021-04-13 08:15:31][111.7.96.179:33360] [접속시도중]:(1/2)
[2021-04-13 08:15:33][111.7.96.179:33360] 연결 종료[정상]

[2021-04-13 08:15:33][111.7.96.179:34096] [접속시도중]:(1/2)
[2021-04-13 08:15:35][111.7.96.179:34096] 연결 종료[정상]

[2021-04-13 08:15:35][111.7.96.179:34722] [접속시도중]:(1/2)

[2021-04-13 08:15:35][111.7.96.179:34722] ■ 패킷공격(의심) ■

[2021-04-13 08:15:35][111.7.96.179:34722] 연결 종료[정상]

[2021-04-13 08:15:35][111.7.96.179:34804] [접속시도중]:(1/2)
[2021-04-13 08:15:37][111.7.96.179:34804] 연결 종료[정상]

[2021-04-13 08:15:38][111.7.96.179:35418] [접속시도중]:(1/2)
[2021-04-13 08:15:40][111.7.96.179:35418] 연결 종료[정상]

[2021-04-13 08:15:40][111.7.96.179:36064] [접속시도중]:(1/2)
[2021-04-13 08:15:42][111.7.96.179:36064] 연결 종료[정상]
[2021-04-13 08:15:42][111.7.96.179:36758] [접속시도중]:(1/2)
[2021-04-13 08:15:44][111.7.96.179:36758] 연결 종료[정상]

[2021-04-13 08:15:44][111.7.96.179:37504] [접속시도중]:(1/2)
[2021-04-13 08:15:51][111.7.96.179:37504] 연결 종료[정상]

[2021-04-13 08:15:51][111.7.96.179:39840] [접속시도중]:(1/2)
[2021-04-13 08:15:53][111.7.96.179:39840] 연결 종료[정상]

[2021-04-13 08:15:53][111.7.96.179:40552] [접속시도중]:(1/2)

[2021-04-13 08:15:53][111.7.96.179:40552] ■ 패킷공격(의심) ■

[2021-04-13 08:15:53][111.7.96.179:40552] ■ 패킷공격(의심) ■

[2021-04-13 08:15:53][111.7.96.179:40552] ■ 패킷공격(의심) ■

[2021-04-13 08:15:53][111.7.96.179:40552] ■ 패킷공격(의심) ■

[2021-04-13 08:15:53][111.7.96.179:40552] 연결 종료[정상]

[2021-04-13 08:15:54][111.7.96.179:40660] [접속시도중]:(1/2)
[2021-04-13 08:15:56][111.7.96.179:40660] 연결 종료[정상]
[2021-04-13 08:15:56][111.7.96.179:41400] [접속시도중]:(1/2)
[2021-04-13 08:16:07][111.7.96.179:41400] 연결 종료[정상]

[2021-04-13 08:16:07][111.7.96.179:45142] [접속시도중]:(1/2)
[2021-04-13 08:16:09][111.7.96.179:45142] 연결 종료[정상]

[2021-04-13 08:16:09][111.7.96.179:45846] [접속시도중]:(1/2)
[2021-04-13 08:16:11][111.7.96.179:45846] 연결 종료[정상]

[2021-04-13 08:16:11][111.7.96.179:46508] [접속시도중]:(1/2)
[2021-04-13 08:16:12][60.13.6.57:53262] [접속시도중]:(1/3)

[2021-04-13 08:16:12][60.13.6.57:53262] 연결 종료[정상]

[2021-04-13 08:16:12][221.13.12.177:53328] [접속시도중]:(1/3)

[2021-04-13 08:16:12][221.13.12.177:53328] 연결 종료[비정상(팅김)].

[2021-04-13 08:16:12][221.13.12.177:53328] 연결 종료[정상]
[2021-04-13 08:16:13][111.7.96.179:46508] 연결 종료[정상]

[2021-04-13 08:16:13][111.7.96.179:47168] [접속시도중]:(1/2)
[2021-04-13 08:16:15][111.7.96.179:47168] 연결 종료[정상]

[2021-04-13 08:16:16][111.7.96.179:47806] [접속시도중]:(1/2)
[2021-04-13 08:16:18][111.7.96.179:47806] 연결 종료[정상]
[2021-04-13 08:16:18][111.7.96.179:48476] [접속시도중]:(1/2)

[2021-04-13 08:16:18][111.7.96.179:48476] ■ 패킷공격(의심) ■

[2021-04-13 08:16:18][111.7.96.179:48476] 연결 종료[정상]

[2021-04-13 08:16:18][111.7.96.179:48596] [접속시도중]:(1/2)

[2021-04-13 08:16:18][111.7.96.179:48596] ■ 패킷공격(의심) ■

[2021-04-13 08:16:18][111.7.96.179:48596] ■ 패킷공격(의심) ■

[2021-04-13 08:16:18][111.7.96.179:48596] 연결 종료[정상]

[2021-04-13 08:16:18][111.7.96.179:48674] [접속시도중]:(1/2)
[2021-04-13 08:16:20][111.7.96.179:48674] 연결 종료[정상]

[2021-04-13 08:16:21][111.7.96.179:49308] [접속시도중]:(1/2)
[2021-04-13 08:16:23][111.7.96.179:49308] 연결 종료[정상]
[2021-04-13 08:16:23][111.7.96.179:49946] [접속시도중]:(1/2)
[2021-04-13 08:16:25][111.7.96.179:49946] 연결 종료[정상]

[2021-04-13 08:16:25][111.7.96.179:50592] [접속시도중]:(1/2)
[2021-04-13 08:16:27][111.7.96.179:50592] 연결 종료[정상]

[2021-04-13 08:16:27][111.7.96.179:51242] [접속시도중]:(1/2)
[2021-04-13 08:16:29][111.7.96.179:51242] 연결 종료[정상]

[2021-04-13 08:16:29][111.7.96.179:51928] [접속시도중]:(1/2)
[2021-04-13 08:16:31][111.7.96.179:51928] 연결 종료[정상]

[2021-04-13 08:16:31][111.7.96.179:52632] [접속시도중]:(1/2)
[2021-04-13 08:16:33][111.7.96.179:52632] 연결 종료[정상]

[2021-04-13 08:16:34][111.7.96.179:53290] [접속시도중]:(1/2)
[2021-04-13 08:16:36][111.7.96.179:53290] 연결 종료[정상]
[2021-04-13 08:16:36][111.7.96.179:53980] [접속시도중]:(1/2)
[2021-04-13 08:16:38][111.7.96.179:53980] 연결 종료[정상]

[2021-04-13 08:16:38][111.7.96.179:54660] [접속시도중]:(1/2)
[2021-04-13 08:16:40][111.7.96.179:54660] 연결 종료[정상]

[2021-04-13 08:16:40][111.7.96.179:55332] [접속시도중]:(1/2)
[2021-04-13 08:16:42][111.7.96.179:55332] 연결 종료[정상]

[2021-04-13 08:16:42][111.7.96.179:55974] [접속시도중]:(1/2)

invalid opcode. [111.7.96.179] op : 233, length : 63 -> kick.(HandShake.)
[2021-04-13 08:16:42][111.7.96.179:55974] 연결 종료[정상]

[2021-04-13 08:16:43][111.7.96.179:56092] [접속시도중]:(1/2)
[2021-04-13 08:16:45][111.7.96.179:56092] 연결 종료[정상]

[2021-04-13 08:16:45][111.7.96.179:56806] [접속시도중]:(1/2)

[2021-04-13 08:16:45][111.7.96.179:56806] ■ 패킷공격(의심) ■

[2021-04-13 08:16:45][111.7.96.179:56806] 연결 종료[정상]
[2021-04-13 08:16:45][111.7.96.179:56922] [접속시도중]:(1/2)
[2021-04-13 08:16:47][111.7.96.179:56922] 연결 종료[정상]

[2021-04-13 08:16:47][111.7.96.179:57686] [접속시도중]:(1/2)
[2021-04-13 08:16:49][111.7.96.179:57686] 연결 종료[정상]

[2021-04-13 08:16:49][111.7.96.179:58416] [접속시도중]:(1/2)
[2021-04-13 08:16:51][111.7.96.179:58416] 연결 종료[정상]

[2021-04-13 08:16:52][111.7.96.179:59158] [접속시도중]:(1/2)
[2021-04-13 08:16:54][111.7.96.179:59158] 연결 종료[정상]

[2021-04-13 08:16:54][111.7.96.179:10072] [접속시도중]:(1/2)
[2021-04-13 08:16:56][111.7.96.179:10072] 연결 종료[정상]
[2021-04-13 08:16:56][111.7.96.179:10866] [접속시도중]:(1/2)
[2021-04-13 08:16:58][111.7.96.179:10866] 연결 종료[정상]

[2021-04-13 08:16:58][111.7.96.179:11664] [접속시도중]:(1/2)
[2021-04-13 08:17:00][111.7.96.179:11664] 연결 종료[정상]

[2021-04-13 08:17:00][111.7.96.179:12646] [접속시도중]:(1/2)

[2021-04-13 08:17:00][111.7.96.179:12646] ■ 패킷공격(의심) ■

[2021-04-13 08:17:00][111.7.96.179:12646] 예외정보.

java.lang.ArrayIndexOutOfBoundsException: 7
	at l1j.server.MJNetServer.Util.MJDataParser.parseLong64(MJDataParser.java:17)
	at l1j.server.MJNetServer.Codec.Cryptor.MJCryptor.decrypt(MJCryptor.java:51)
	at l1j.server.MJNetServer.Codec.MJNSDecoder.decode(MJNSDecoder.java:48)
	at io.netty.handler.codec.ByteToMessageDecoder.callDecode(ByteToMessageDecoder.java:411)
	at io.netty.handler.codec.ByteToMessageDecoder.channelRead(ByteToMessageDecoder.java:248)
	at io.netty.channel.AbstractChannelHandlerContext.invokeChannelRead(AbstractChannelHandlerContext.java:363)
	at io.netty.channel.AbstractChannelHandlerContext.invokeChannelRead(AbstractChannelHandlerContext.java:349)
	at io.netty.channel.AbstractChannelHandlerContext.fireChannelRead(AbstractChannelHandlerContext.java:341)
	at io.netty.channel.DefaultChannelPipeline$HeadContext.channelRead(DefaultChannelPipeline.java:1334)
	at io.netty.channel.AbstractChannelHandlerContext.invokeChannelRead(AbstractChannelHandlerContext.java:363)
	at io.netty.channel.AbstractChannelHandlerContext.invokeChannelRead(AbstractChannelHandlerContext.java:349)
	at io.netty.channel.DefaultChannelPipeline.fireChannelRead(DefaultChannelPipeline.java:926)
	at io.netty.channel.nio.AbstractNioByteChannel$NioByteUnsafe.read(AbstractNioByteChannel.java:129)
	at io.netty.channel.nio.NioEventLoop.processSelectedKey(NioEventLoop.java:642)
	at io.netty.channel.nio.NioEventLoop.processSelectedKeysOptimized(NioEventLoop.java:565)
	at io.netty.channel.nio.NioEventLoop.processSelectedKeys(NioEventLoop.java:479)
	at io.netty.channel.nio.NioEventLoop.run(NioEventLoop.java:441)
	at io.netty.util.concurrent.SingleThreadEventExecutor$5.run(SingleThreadEventExecutor.java:858)
	at io.netty.util.concurrent.DefaultThreadFactory$DefaultRunnableDecorator.run(DefaultThreadFactory.java:144)
	at java.lang.Thread.run(Unknown Source)
[2021-04-13 08:17:00][111.7.96.179:12646] 연결 종료[정상]

[2021-04-13 08:17:00][111.7.96.179:12782] [접속시도중]:(1/2)
[2021-04-13 08:17:02][111.7.96.179:12782] 연결 종료[정상]

[2021-04-13 08:17:03][111.7.96.179:13764] [접속시도중]:(1/2)
[2021-04-13 08:17:05][111.7.96.179:13764] 연결 종료[정상]
[2021-04-13 08:17:05][111.7.96.179:14808] [접속시도중]:(1/2)
[2021-04-13 08:17:07][111.7.96.179:14808] 연결 종료[정상]

[2021-04-13 08:17:07][111.7.96.179:15790] [접속시도중]:(1/2)
[2021-04-13 08:17:09][111.7.96.179:15790] 연결 종료[정상]

[2021-04-13 08:17:09][111.7.96.179:16788] [접속시도중]:(1/2)
[2021-04-13 08:17:11][111.7.96.179:16788] 연결 종료[정상]

[2021-04-13 08:17:11][111.7.96.179:17748] [접속시도중]:(1/2)
[2021-04-13 08:17:13][111.7.96.179:17748] 연결 종료[정상]

[2021-04-13 08:17:13][111.7.96.179:18700] [접속시도중]:(1/2)
[2021-04-13 08:17:15][111.7.96.179:18700] 연결 종료[정상]

[2021-04-13 08:17:16][111.7.96.179:19674] [접속시도중]:(1/2)
[2021-04-13 08:17:18][111.7.96.179:20616] [접속시도중]:(2/3)

[2021-04-13 08:17:18][111.7.96.179:19674] 연결 종료[정상]
[2021-04-13 08:17:20][111.7.96.179:20616] 연결 종료[정상]

[2021-04-13 08:17:20][111.7.96.179:21582] [접속시도중]:(1/2)
[2021-04-13 08:17:22][111.7.96.179:21582] 연결 종료[정상]

[2021-04-13 08:17:22][111.7.96.179:22604] [접속시도중]:(1/2)

[2021-04-13 08:17:22][111.7.96.179:22604] ■ 패킷공격(의심) ■

[2021-04-13 08:17:22][111.7.96.179:22604] 연결 종료[정상]

[2021-04-13 08:17:22][111.7.96.179:22740] [접속시도중]:(1/2)
[2021-04-13 08:17:24][111.7.96.179:22740] 연결 종료[정상]

[2021-04-13 08:17:25][111.7.96.179:23840] [접속시도중]:(1/2)
[2021-04-13 08:17:27][111.7.96.179:23840] 연결 종료[정상]

[2021-04-13 08:17:27][111.7.96.179:24882] [접속시도중]:(1/2)
[2021-04-13 08:17:29][111.7.96.179:24882] 연결 종료[정상]
[2021-04-13 08:17:29][111.7.96.179:25870] [접속시도중]:(1/2)
[2021-04-13 08:17:31][111.7.96.179:25870] 연결 종료[정상]

[2021-04-13 08:17:31][111.7.96.179:26822] [접속시도중]:(1/2)
[2021-04-13 08:17:33][111.7.96.179:26822] 연결 종료[정상]

[2021-04-13 08:17:33][111.7.96.179:27770] [접속시도중]:(1/2)
[2021-04-13 08:17:35][111.7.96.179:27770] 연결 종료[정상]

[2021-04-13 08:17:35][111.7.96.179:28718] [접속시도중]:(1/2)
[2021-04-13 08:17:37][111.7.96.179:28718] 연결 종료[정상]

[2021-04-13 08:17:38][111.7.96.179:29646] [접속시도중]:(1/2)
[2021-04-13 08:17:40][111.7.96.179:29646] 연결 종료[정상]

[2021-04-13 08:17:40][111.7.96.179:30580] [접속시도중]:(1/2)
[2021-04-13 08:17:42][111.7.96.179:30580] 연결 종료[정상]
[2021-04-13 08:17:42][111.7.96.179:31570] [접속시도중]:(1/2)
[2021-04-13 08:17:44][111.7.96.179:31570] 연결 종료[정상]

[2021-04-13 08:17:44][111.7.96.179:32514] [접속시도중]:(1/2)
[2021-04-13 08:17:46][111.7.96.179:32514] 연결 종료[정상]

[2021-04-13 08:17:46][111.7.96.179:33424] [접속시도중]:(1/2)
[2021-04-13 08:17:48][111.7.96.179:33424] 연결 종료[정상]

[2021-04-13 08:17:48][111.7.96.179:34408] [접속시도중]:(1/2)
[2021-04-13 08:17:50][111.7.96.179:34408] 연결 종료[정상]

[2021-04-13 08:17:51][111.7.96.179:35340] [접속시도중]:(1/2)
[2021-04-13 08:17:53][111.7.96.179:35340] 연결 종료[정상]

[2021-04-13 08:17:53][111.7.96.179:36200] [접속시도중]:(1/2)
[2021-04-13 08:17:55][111.7.96.179:36200] 연결 종료[정상]
[2021-04-13 08:17:55][111.7.96.179:37094] [접속시도중]:(1/2)
[2021-04-13 08:17:57][111.7.96.179:37094] 연결 종료[정상]

[2021-04-13 08:17:57][111.7.96.179:37928] [접속시도중]:(1/2)
[2021-04-13 08:17:59][111.7.96.179:37928] 연결 종료[정상]

[2021-04-13 08:17:59][111.7.96.179:38734] [접속시도중]:(1/2)
[2021-04-13 08:18:01][111.7.96.179:38734] 연결 종료[정상]

[2021-04-13 08:18:01][111.7.96.179:39574] [접속시도중]:(1/2)
[2021-04-13 08:18:03][111.7.96.179:39574] 연결 종료[정상]

[2021-04-13 08:18:04][111.7.96.179:40396] [접속시도중]:(1/2)
[2021-04-13 08:18:06][111.7.96.179:40396] 연결 종료[정상]

[2021-04-13 08:18:06][111.7.96.179:41208] [접속시도중]:(1/2)
[2021-04-13 08:18:08][111.7.96.179:41208] 연결 종료[정상]
[2021-04-13 08:18:08][111.7.96.179:41964] [접속시도중]:(1/2)
[2021-04-13 08:18:10][111.7.96.179:41964] 연결 종료[정상]

[2021-04-13 08:18:10][111.7.96.179:42744] [접속시도중]:(1/2)
[2021-04-13 08:18:12][111.7.96.179:42744] 연결 종료[정상]
[Book System Update...!] 2021- 313  9: 0: 0
-------------------------------------------------------------------------------
[럭키서버] version 1.0
[럭키서버] 김행운
[럭키서버] 푸들
-------------------------------------------------------------------------------
invalid action code 95
invalid action code 96
invalid action code 97
서버 로딩 시작 : 2021년 04월13일 10시14분17초
-------------------------------------------------------------------------------
 [SERVER IP] => 211.194.13.230
 [SERVER PORT] => 2000
-------------------------------------------------------------------------------
 [배	율] 경험치: x40000.0 / 아데나: x210.0 / 아이템: x35.0
-------------------------------------------------------------------------------
 [인챈트] 무기: +6% / 방어구: +16% / 장신구: +13%
-------------------------------------------------------------------------------
[2021-04-13 10:14:38][127.0.0.1:57752] [접속시도중]:(1/1)
【계정】gmlucky【케릭】메티스【오전】10:14분【IP】127.0.0.1【M】477
[2021-04-13 11:01:38][192.241.207.208:54370] [접속시도중]:(1/2)
[2021-04-13 11:01:38][192.241.207.208:54370] 연결 종료[정상]
[2021-04-13 11:31:18][193.118.55.146:33044] [접속시도중]:(1/2)
[2021-04-13 11:31:26][193.118.55.146:33044] 연결 종료[정상]
[2021-04-13 11:31:26][193.118.55.146:43980] [접속시도중]:(1/2)

[2021-04-13 11:31:26][193.118.55.146:43980] 연결 종료[정상]

[2021-04-13 11:31:27][193.118.55.146:44870] [접속시도중]:(1/2)
[2021-04-13 11:31:35][193.118.55.146:44870] 연결 종료[정상]

[2021-04-13 11:31:35][193.118.55.146:56022] [접속시도중]:(1/2)
[2021-04-13 11:31:40][193.118.55.146:56022] 연결 종료[정상]
[2021-04-13 11:31:40][193.118.55.146:34400] [접속시도중]:(1/2)

[2021-04-13 11:31:40][193.118.55.146:34400] 연결 종료[정상]
[2021-04-13 12:20:09][162.142.125.40:47706] [접속시도중]:(1/2)
[2021-04-13 12:20:10][162.142.125.40:47706] 연결 종료[비정상(팅김)].

[2021-04-13 12:20:10][162.142.125.40:47706] 연결 종료[정상]
[2021-04-13 13:16:47][206.161.216.34:20213] [접속시도중]:(1/2)
[2021-04-13 13:17:17][206.161.216.34:20213] 연결 종료[비정상(팅김)].

[2021-04-13 13:17:17][206.161.216.34:20213] 연결 종료[정상]
-------------------------------------------------------------------------------
[럭키서버] version 1.0
[럭키서버] 김행운
[럭키서버] 푸들
-------------------------------------------------------------------------------
invalid action code 95
invalid action code 96
invalid action code 97
서버 로딩 시작 : 2021년 04월13일 17시43분11초
-------------------------------------------------------------------------------
 [SERVER IP] => 211.194.13.230
 [SERVER PORT] => 2000
-------------------------------------------------------------------------------
 [배	율] 경험치: x40000.0 / 아데나: x210.0 / 아이템: x35.0
-------------------------------------------------------------------------------
 [인챈트] 무기: +6% / 방어구: +16% / 장신구: +13%
-------------------------------------------------------------------------------
[2021-04-13 17:43:42][127.0.0.1:58434] [접속시도중]:(1/1)
【계정】gmlucky【케릭】메티스【오후】5:43분【IP】127.0.0.1【M】469
[2021-04-13 21:28:41][167.248.133.54:39232] [접속시도중]:(1/2)

[2021-04-13 21:28:41][167.248.133.54:39232] 예외정보.

java.lang.ArrayIndexOutOfBoundsException: 3
	at l1j.server.MJNetServer.Codec.Cryptor.MJCryptor.decwork(MJCryptor.java:64)
	at l1j.server.MJNetServer.Codec.Cryptor.MJCryptor.decrypt(MJCryptor.java:50)
	at l1j.server.MJNetServer.Codec.MJNSDecoder.decode(MJNSDecoder.java:48)
	at io.netty.handler.codec.ByteToMessageDecoder.callDecode(ByteToMessageDecoder.java:411)
	at io.netty.handler.codec.ByteToMessageDecoder.channelRead(ByteToMessageDecoder.java:248)
	at io.netty.channel.AbstractChannelHandlerContext.invokeChannelRead(AbstractChannelHandlerContext.java:363)
	at io.netty.channel.AbstractChannelHandlerContext.invokeChannelRead(AbstractChannelHandlerContext.java:349)
	at io.netty.channel.AbstractChannelHandlerContext.fireChannelRead(AbstractChannelHandlerContext.java:341)
	at io.netty.channel.DefaultChannelPipeline$HeadContext.channelRead(DefaultChannelPipeline.java:1334)
	at io.netty.channel.AbstractChannelHandlerContext.invokeChannelRead(AbstractChannelHandlerContext.java:363)
	at io.netty.channel.AbstractChannelHandlerContext.invokeChannelRead(AbstractChannelHandlerContext.java:349)
	at io.netty.channel.DefaultChannelPipeline.fireChannelRead(DefaultChannelPipeline.java:926)
	at io.netty.channel.nio.AbstractNioByteChannel$NioByteUnsafe.read(AbstractNioByteChannel.java:129)
	at io.netty.channel.nio.NioEventLoop.processSelectedKey(NioEventLoop.java:642)
	at io.netty.channel.nio.NioEventLoop.processSelectedKeysOptimized(NioEventLoop.java:565)
	at io.netty.channel.nio.NioEventLoop.processSelectedKeys(NioEventLoop.java:479)
	at io.netty.channel.nio.NioEventLoop.run(NioEventLoop.java:441)
	at io.netty.util.concurrent.SingleThreadEventExecutor$5.run(SingleThreadEventExecutor.java:858)
	at io.netty.util.concurrent.DefaultThreadFactory$DefaultRunnableDecorator.run(DefaultThreadFactory.java:144)
	at java.lang.Thread.run(Unknown Source)
[2021-04-13 21:28:41][167.248.133.54:39232] ■ 패킷공격(의심) ■

[2021-04-13 21:28:41][167.248.133.54:39232] ■ 패킷공격(의심) ■

[2021-04-13 21:28:41][167.248.133.54:39232] ■ 패킷공격(의심) ■

[2021-04-13 21:28:41][167.248.133.54:39232] 연결 종료[정상]

[2021-04-13 21:28:42][167.248.133.54:47558] [접속시도중]:(1/2)

[2021-04-13 21:28:42][167.248.133.54:47558] 연결 종료[비정상(팅김)].

[2021-04-13 21:28:42][167.248.133.54:47558] 연결 종료[정상]
[2021-04-13 22:04:40][185.202.2.32:4252] [접속시도중]:(1/2)

[2021-04-13 22:04:40][185.202.2.32:4252] 연결 종료[정상]

[2021-04-13 22:04:40][185.202.2.32:6627] [접속시도중]:(1/2)

[2021-04-13 22:04:40][185.202.2.32:6627] ■ 패킷공격(의심) ■

[2021-04-13 22:04:40][185.202.2.32:6627] 연결 종료[정상]
[2021-04-13 22:04:41][185.202.2.32:9271] [접속시도중]:(1/2)

[2021-04-13 22:04:41][185.202.2.32:9271] ■ 패킷공격(의심) ■

[2021-04-13 22:04:41][185.202.2.32:9271] 연결 종료[정상]
[2021-04-13 23:45:59][192.241.206.159:45580] [접속시도중]:(1/2)
[2021-04-13 23:46:09][192.241.206.159:45580] 연결 종료[정상]
