[2021-04-14 03:36:57][206.161.216.34:20213] [접속시도중]:(1/2)
[2021-04-14 03:37:29][206.161.216.34:20213] 연결 종료[비정상(팅김)].

[2021-04-14 03:37:29][206.161.216.34:20213] 연결 종료[정상]
[2021-04-14 04:47:03][91.220.163.18:58266] [접속시도중]:(1/2)

[2021-04-14 04:47:03][91.220.163.18:58266] 연결 종료[정상]

[2021-04-14 04:47:03][91.220.163.18:59022] [접속시도중]:(1/2)

[2021-04-14 04:47:03][91.220.163.18:59022] ■ 패킷공격(의심) ■

[2021-04-14 04:47:03][91.220.163.18:59022] 연결 종료[정상]
[2021-04-14 04:47:04][91.220.163.18:1708] [접속시도중]:(1/2)

[2021-04-14 04:47:04][91.220.163.18:1708] ■ 패킷공격(의심) ■

[2021-04-14 04:47:04][91.220.163.18:1708] 연결 종료[정상]
[Book System Update...!] 2021- 314  9: 0: 0
-------------------------------------------------------------------------------
[럭키서버] version 1.0
[럭키서버] 김행운
[럭키서버] 푸들
-------------------------------------------------------------------------------
-------------------------------------------------------------------------------
[럭키서버] version 1.0
[럭키서버] 김행운
[럭키서버] 푸들
-------------------------------------------------------------------------------
invalid action code 95
invalid action code 96
invalid action code 97
서버 로딩 시작 : 2021년 04월14일 14시57분27초
-------------------------------------------------------------------------------
 [SERVER IP] => 211.194.13.230
 [SERVER PORT] => 2000
-------------------------------------------------------------------------------
 [배	율] 경험치: x40000.0 / 아데나: x210.0 / 아이템: x35.0
-------------------------------------------------------------------------------
 [인챈트] 무기: +6% / 방어구: +16% / 장신구: +13%
-------------------------------------------------------------------------------
[2021-04-14 14:57:49][127.0.0.1:53247] [접속시도중]:(1/1)
【계정】gmlucky【케릭】메티스【오후】2:58분【IP】127.0.0.1【M】412
게임종료: [메티스] 계정 [gmlucky] IP [127.0.0.1]
[2021-04-14 15:00:24][127.0.0.1:53247] 연결 종료[정상]
-------------------------------------------------------------------------------
[럭키서버] version 1.0
[럭키서버] 김행운
[럭키서버] 푸들
-------------------------------------------------------------------------------
invalid action code 95
invalid action code 96
invalid action code 97
서버 로딩 시작 : 2021년 04월14일 15시26분56초
-------------------------------------------------------------------------------
 [SERVER IP] => 211.194.13.230
 [SERVER PORT] => 2000
-------------------------------------------------------------------------------
 [배	율] 경험치: x40000.0 / 아데나: x210.0 / 아이템: x35.0
-------------------------------------------------------------------------------
 [인챈트] 무기: +6% / 방어구: +16% / 장신구: +13%
-------------------------------------------------------------------------------
[2021-04-14 15:27:52][127.0.0.1:53366] [접속시도중]:(1/1)
【계정】gmlucky【케릭】메티스【오후】3:28분【IP】127.0.0.1【M】409
[2021-04-14 15:28:35][127.0.0.1:53367] [접속시도중]:(2/2)
【계정】oper2800【케릭】불끈불끈【오후】3:28분【IP】127.0.0.1【M】416
-------------------------------------------------------------------------------
[럭키서버] version 1.0
[럭키서버] 김행운
[럭키서버] 푸들
-------------------------------------------------------------------------------
invalid action code 95
invalid action code 96
invalid action code 97
서버 로딩 시작 : 2021년 04월14일 15시36분02초
-------------------------------------------------------------------------------
 [SERVER IP] => 211.194.13.230
 [SERVER PORT] => 2000
-------------------------------------------------------------------------------
 [배	율] 경험치: x40000.0 / 아데나: x210.0 / 아이템: x35.0
-------------------------------------------------------------------------------
 [인챈트] 무기: +6% / 방어구: +16% / 장신구: +13%
-------------------------------------------------------------------------------
[2021-04-14 15:36:38][127.0.0.1:53426] [접속시도중]:(1/1)
【계정】gmlucky【케릭】메티스【오후】3:36분【IP】127.0.0.1【M】423
[2021-04-14 15:39:23][127.0.0.1:53432] [접속시도중]:(2/2)
【계정】gmlucky1【케릭】코코【오후】3:39분【IP】127.0.0.1【M】451
게임종료: [코코] 계정 [gmlucky1] IP [127.0.0.1]
【계정】dlwoghk1027【케릭】끈적끈적【오후】4:36분【IP】127.0.0.1【M】292
com.mchange.v2.c3p0.impl.NewProxyPreparedStatement@39ad2d89
게임종료: [끈적끈적] 계정 [dlwoghk1027] IP [127.0.0.1]
【계정】bujacourt【케릭】충주딸기【오후】7:49분【IP】127.0.0.1【M】450
게임종료: [메티스] 계정 [gmlucky] IP [127.0.0.1]
[2021-04-14 21:36:13][127.0.0.1:53426] 연결 종료[정상]
게임종료: [충주딸기] 계정 [bujacourt] IP [127.0.0.1]
[2021-04-14 21:36:18][127.0.0.1:53432] 연결 종료[정상]
[2021-04-14 21:36:54][127.0.0.1:53215] [접속시도중]:(1/1)
【계정】gmlucky【케릭】메티스【오후】9:37분【IP】127.0.0.1【M】462
-------------------------------------------------------------------------------
[럭키서버] version 1.0
[럭키서버] 김행운
[럭키서버] 푸들
-------------------------------------------------------------------------------
invalid action code 95
invalid action code 96
invalid action code 97
서버 로딩 시작 : 2021년 04월14일 22시03분54초
-------------------------------------------------------------------------------
 [SERVER IP] => 211.194.13.230
 [SERVER PORT] => 2000
-------------------------------------------------------------------------------
 [배	율] 경험치: x40000.0 / 아데나: x210.0 / 아이템: x35.0
-------------------------------------------------------------------------------
 [인챈트] 무기: +6% / 방어구: +16% / 장신구: +13%
-------------------------------------------------------------------------------
[2021-04-14 22:04:15][127.0.0.1:53318] [접속시도중]:(1/1)
【계정】taehea【케릭】발렌시아가【오후】10:4분【IP】127.0.0.1【M】427
게임종료: [발렌시아가] 계정 [taehea] IP [127.0.0.1]
[2021-04-14 22:05:07][127.0.0.1:53318] 연결 종료[정상]
-------------------------------------------------------------------------------
[럭키서버] version 1.0
[럭키서버] 김행운
[럭키서버] 푸들
-------------------------------------------------------------------------------
invalid action code 95
invalid action code 96
invalid action code 97
서버 로딩 시작 : 2021년 04월14일 22시28분14초
-------------------------------------------------------------------------------
 [SERVER IP] => 211.194.13.230
 [SERVER PORT] => 2000
-------------------------------------------------------------------------------
 [배	율] 경험치: x40000.0 / 아데나: x210.0 / 아이템: x35.0
-------------------------------------------------------------------------------
 [인챈트] 무기: +6% / 방어구: +16% / 장신구: +13%
-------------------------------------------------------------------------------
[2021-04-14 22:29:28][127.0.0.1:53427] [접속시도중]:(1/1)
-------------------------------------------------------------------------------
[럭키서버] version 1.0
[럭키서버] 김행운
[럭키서버] 푸들
-------------------------------------------------------------------------------
invalid action code 95
invalid action code 96
invalid action code 97
서버 로딩 시작 : 2021년 04월14일 22시31분58초
-------------------------------------------------------------------------------
 [SERVER IP] => 211.194.13.230
 [SERVER PORT] => 2000
-------------------------------------------------------------------------------
 [배	율] 경험치: x40000.0 / 아데나: x210.0 / 아이템: x35.0
-------------------------------------------------------------------------------
 [인챈트] 무기: +6% / 방어구: +16% / 장신구: +13%
-------------------------------------------------------------------------------
[2021-04-14 22:33:08][127.0.0.1:53489] [접속시도중]:(1/1)
【계정】gmlucky【케릭】메티스【오후】10:33분【IP】127.0.0.1【M】459
[2021-04-14 22:33:36][127.0.0.1:53490] [접속시도중]:(2/2)
[2021-04-14 22:35:36][127.0.0.1:53490] 연결 종료[정상]
-------------------------------------------------------------------------------
[럭키서버] version 1.0
[럭키서버] 김행운
[럭키서버] 푸들
-------------------------------------------------------------------------------
invalid action code 95
invalid action code 96
invalid action code 97
서버 로딩 시작 : 2021년 04월14일 22시55분58초
-------------------------------------------------------------------------------
 [SERVER IP] => 211.194.13.230
 [SERVER PORT] => 2000
-------------------------------------------------------------------------------
 [배	율] 경험치: x40000.0 / 아데나: x210.0 / 아이템: x35.0
-------------------------------------------------------------------------------
 [인챈트] 무기: +6% / 방어구: +16% / 장신구: +13%
-------------------------------------------------------------------------------
[2021-04-14 22:56:31][127.0.0.1:53580] [접속시도중]:(1/1)
[2021-04-14 22:56:39][127.0.0.1:53581] [접속시도중]:(2/2)
【계정】gmlucky【케릭】메티스【오후】10:56분【IP】127.0.0.1【M】416
【계정】flsk11【케릭】루비【오후】10:57분【IP】127.0.0.1【M】431
게임종료: [루비] 계정 [flsk11] IP [127.0.0.1]
【계정】loek12【케릭】하느【오후】10:59분【IP】127.0.0.1【M】441
게임종료: [하느] 계정 [loek12] IP [127.0.0.1]
[2021-04-14 22:59:32][127.0.0.1:53581] 연결 종료[정상]
게임종료: [메티스] 계정 [gmlucky] IP [127.0.0.1]
【계정】loek12【케릭】하느【오후】10:59분【IP】127.0.0.1【M】444
게임종료: [하느] 계정 [loek12] IP [127.0.0.1]
-------------------------------------------------------------------------------
[럭키서버] version 1.0
[럭키서버] 김행운
[럭키서버] 푸들
-------------------------------------------------------------------------------
invalid action code 95
invalid action code 96
invalid action code 97
서버 로딩 시작 : 2021년 04월14일 23시01분01초
-------------------------------------------------------------------------------
 [SERVER IP] => 211.194.13.230
 [SERVER PORT] => 2000
-------------------------------------------------------------------------------
 [배	율] 경험치: x40000.0 / 아데나: x210.0 / 아이템: x35.0
-------------------------------------------------------------------------------
 [인챈트] 무기: +6% / 방어구: +16% / 장신구: +13%
-------------------------------------------------------------------------------
[2021-04-14 23:01:45][127.0.0.1:53639] [접속시도중]:(1/1)
【계정】loek12【케릭】하느【오후】11:2분【IP】127.0.0.1【M】430
[2021-04-14 23:02:49][127.0.0.1:53640] [접속시도중]:(2/2)
[2021-04-14 23:03:07][127.0.0.1:53639] 연결 종료[정상]

게임종료: [하느] 계정 [loek12] IP [127.0.0.1]
─────────────────────────────────
한계정 동시접속으로 종료 합니다. ▶계정명◀: loek12
─────────────────────────────────
[2021-04-14 23:03:07][127.0.0.1:53640] 연결 종료[정상]
[2021-04-14 23:03:41][127.0.0.1:53642] [접속시도중]:(1/1)
【계정】gmlucky【케릭】메티스【오후】11:3분【IP】127.0.0.1【M】442
[2021-04-14 23:04:04][127.0.0.1:53645] [접속시도중]:(2/2)
【계정】loek12【케릭】하느【오후】11:4분【IP】127.0.0.1【M】446
게임종료: [하느] 계정 [loek12] IP [127.0.0.1]
───────────────────────────────────────
▶　계정생성초과! 생성시도 계정명 :  dkslek44　◀
───────────────────────────────────────
[2021-04-14 23:06:21][127.0.0.1:53645] 연결 종료[정상]
게임종료: [메티스] 계정 [gmlucky] IP [127.0.0.1]
───────────────────────────────────────
▶　계정생성초과! 생성시도 계정명 :  dkslek44　◀
───────────────────────────────────────
[2021-04-14 23:08:02][127.0.0.1:53642] 연결 종료[정상]
[2021-04-14 23:08:48][127.0.0.1:53648] [접속시도중]:(1/1)
4월 14, 2021 11:09:23 오후 l1j.server.MJNetSafeSystem.Distribution.ConnectedDistributor simplyLog
정보: 동일한 ID의 접속 : (127.0.0.1) 강제 절단 했습니다.
동일한 ID의 접속 : (127.0.0.1) 강제 절단 했습니다.
[2021-04-14 23:09:23][127.0.0.1:53648] 연결 종료[정상]
[2021-04-14 23:09:26][127.0.0.1:53649] [접속시도중]:(1/1)
[2021-04-14 23:10:14][127.0.0.1:53653] [접속시도중]:(2/2)
【계정】gmlucky【케릭】메티스【오후】11:10분【IP】127.0.0.1【M】463
[2021-04-14 23:11:26][127.0.0.1:53649] 연결 종료[정상]
[2021-04-14 23:12:51][127.0.0.1:53660] [접속시도중]:(2/2)
【계정】dkslek4【케릭】하은비【오후】11:13분【IP】127.0.0.1【M】473
게임종료: [하은비] 계정 [dkslek4] IP [127.0.0.1]
【계정】hhh0542【케릭】쓰레기【오후】11:37분【IP】127.0.0.1【M】365
