2021-03-18 12:01:12	메티스: 아이템 11000 50
2021-03-18 12:01:16	메티스: 아이티ㅔㅁ 빛나느
2021-03-18 12:01:19	메티스: 아이템 빛나는럭키상자 50
2021-03-18 12:01:23	메티스: 검색 0 힘센
2021-03-18 12:01:25	메티스: 아이템 
2021-03-18 12:01:30	메티스: 아이템 1억아데나수표 50
2021-03-18 12:01:31	메티스: 귀환 2
2021-03-18 12:01:42	메티스: 검색 0 메티ㅡ
2021-03-18 12:01:45	메티스: 검색 0 메티스
2021-03-18 12:01:48	메티스: 아이템 110001 50
2021-03-18 16:13:40	메티스: 검색 0 pc
2021-03-18 16:13:54	메티스: 선물 테스트 3000201
2021-03-18 16:43:55	메티스: 투명 
2021-03-18 16:45:41	메티스: 아이템 .아이템 30000130
2021-03-18 16:45:45	메티스: 아이템 30001290
2021-03-18 16:45:48	메티스: 아이템 3000129
2021-03-18 16:49:07	메티스: 아이템 4100156
2021-03-18 17:15:09	메티스: 귀환 14
2021-03-18 17:15:33	메티스: 검색 0 힘센
2021-03-18 17:15:36	메티스: 아이템 4100156 500
2021-03-18 17:15:46	메티스: 귀환 12
2021-03-18 17:15:49	메티스: 귀환 14
2021-03-18 17:27:44	메티스: 귀환 2
