-------------------------------------------------------------------------------
[럭키서버] version 1.0
[럭키서버] 김행운
[럭키서버] 푸들
-------------------------------------------------------------------------------
invalid action code 95
invalid action code 96
invalid action code 97
서버 로딩 시작 : 2021년 02월08일 21시31분42초
-------------------------------------------------------------------------------
 [SERVER IP] => 211.194.13.230
 [SERVER PORT] => 2000
-------------------------------------------------------------------------------
 [배	율] 경험치: x40000.0 / 아데나: x210.0 / 아이템: x35.0
-------------------------------------------------------------------------------
 [인챈트] 무기: +6% / 방어구: +16% / 장신구: +13%
-------------------------------------------------------------------------------
[2021-02-08 21:32:29][127.0.0.1:62983] [접속시도중]:(1/1)
【계정】gmlucky【케릭】메티스【오후】9:32분【IP】127.0.0.1【M】356
[2021-02-08 21:33:15][127.0.0.1:63016] [접속시도중]:(2/2)
【계정】djwls1【케릭】메롱메롱【오후】9:33분【IP】127.0.0.1【M】367
-------------------------------------------------------------------------------
[럭키서버] version 1.0
[럭키서버] 김행운
[럭키서버] 푸들
-------------------------------------------------------------------------------
invalid action code 95
invalid action code 96
invalid action code 97
서버 로딩 시작 : 2021년 02월08일 21시47분15초
-------------------------------------------------------------------------------
 [SERVER IP] => 211.194.13.230
 [SERVER PORT] => 2000
-------------------------------------------------------------------------------
 [배	율] 경험치: x40000.0 / 아데나: x210.0 / 아이템: x35.0
-------------------------------------------------------------------------------
 [인챈트] 무기: +6% / 방어구: +16% / 장신구: +13%
-------------------------------------------------------------------------------
[2021-02-08 21:47:52][127.0.0.1:63643] [접속시도중]:(1/1)
【계정】gmlucky【케릭】메티스【오후】9:48분【IP】127.0.0.1【M】401
[2021-02-08 21:48:43][127.0.0.1:63693] [접속시도중]:(2/2)
[2021-02-08 21:50:04][127.0.0.1:63693] 연결 종료[정상]
게임종료: [메티스] 계정 [gmlucky] IP [127.0.0.1]
[2021-02-08 21:50:07][127.0.0.1:63643] 연결 종료[정상]
-------------------------------------------------------------------------------
[럭키서버] version 1.0
[럭키서버] 김행운
[럭키서버] 푸들
-------------------------------------------------------------------------------
invalid action code 95
invalid action code 96
invalid action code 97
서버 로딩 시작 : 2021년 02월08일 21시52분04초
-------------------------------------------------------------------------------
 [SERVER IP] => 211.194.13.230
 [SERVER PORT] => 2000
-------------------------------------------------------------------------------
 [배	율] 경험치: x40000.0 / 아데나: x210.0 / 아이템: x35.0
-------------------------------------------------------------------------------
 [인챈트] 무기: +6% / 방어구: +16% / 장신구: +13%
-------------------------------------------------------------------------------
[2021-02-08 21:53:04][127.0.0.1:63922] [접속시도중]:(1/1)
【계정】gmlucky【케릭】메티스【오후】9:53분【IP】127.0.0.1【M】384
[2021-02-08 21:53:44][127.0.0.1:63950] [접속시도중]:(2/2)
【계정】zxcvb316【케릭】기봉이【오후】9:54분【IP】127.0.0.1【M】392
게임종료: [기봉이] 계정 [zxcvb316] IP [127.0.0.1]
【계정】wjdtjdqo12【케릭】퀸【오후】9:55분【IP】127.0.0.1【M】539
게임종료: [메티스] 계정 [gmlucky] IP [127.0.0.1]
【계정】gmlucky【케릭】메티스【오후】9:56분【IP】127.0.0.1【M】548
게임종료: [퀸] 계정 [wjdtjdqo12] IP [127.0.0.1]
【계정】alska1420【케릭】레쓰비【오후】9:58분【IP】127.0.0.1【M】362
게임종료: [메티스] 계정 [gmlucky] IP [127.0.0.1]
[2021-02-08 21:58:28][127.0.0.1:63922] 연결 종료[정상]
게임종료: [레쓰비] 계정 [alska1420] IP [127.0.0.1]
[2021-02-08 21:58:31][127.0.0.1:63950] 연결 종료[정상]
-------------------------------------------------------------------------------
[럭키서버] version 1.0
[럭키서버] 김행운
[럭키서버] 푸들
-------------------------------------------------------------------------------
invalid action code 95
invalid action code 96
invalid action code 97
서버 로딩 시작 : 2021년 02월08일 22시03분58초
-------------------------------------------------------------------------------
 [SERVER IP] => 211.194.13.230
 [SERVER PORT] => 2000
-------------------------------------------------------------------------------
 [배	율] 경험치: x40000.0 / 아데나: x210.0 / 아이템: x35.0
-------------------------------------------------------------------------------
 [인챈트] 무기: +6% / 방어구: +16% / 장신구: +13%
-------------------------------------------------------------------------------
[2021-02-08 22:04:53][127.0.0.1:64458] [접속시도중]:(1/1)
【계정】gmlucky【케릭】메티스【오후】10:5분【IP】127.0.0.1【M】440
[2021-02-08 22:05:31][127.0.0.1:64488] [접속시도중]:(2/2)
-------------------------------------------------------------------------------
[럭키서버] version 1.0
[럭키서버] 김행운
[럭키서버] 푸들
-------------------------------------------------------------------------------
invalid action code 95
invalid action code 96
invalid action code 97
서버 로딩 시작 : 2021년 02월08일 22시07분18초
-------------------------------------------------------------------------------
 [SERVER IP] => 211.194.13.230
 [SERVER PORT] => 2000
-------------------------------------------------------------------------------
 [배	율] 경험치: x40000.0 / 아데나: x210.0 / 아이템: x35.0
-------------------------------------------------------------------------------
 [인챈트] 무기: +6% / 방어구: +16% / 장신구: +13%
-------------------------------------------------------------------------------
[2021-02-08 22:07:39][127.0.0.1:64617] [접속시도중]:(1/1)
【계정】gmlucky【케릭】메티스【오후】10:7분【IP】127.0.0.1【M】465
[2021-02-08 22:08:07][127.0.0.1:64632] [접속시도중]:(2/2)
【계정】alska1420【케릭】레쓰비【오후】10:8분【IP】127.0.0.1【M】482
-------------------------------------------------------------------------------
[럭키서버] version 1.0
[럭키서버] 김행운
[럭키서버] 푸들
-------------------------------------------------------------------------------
invalid action code 95
invalid action code 96
invalid action code 97
서버 로딩 시작 : 2021년 02월08일 22시17분16초
-------------------------------------------------------------------------------
 [SERVER IP] => 211.194.13.230
 [SERVER PORT] => 2000
-------------------------------------------------------------------------------
 [배	율] 경험치: x40000.0 / 아데나: x210.0 / 아이템: x35.0
-------------------------------------------------------------------------------
 [인챈트] 무기: +6% / 방어구: +16% / 장신구: +13%
-------------------------------------------------------------------------------
[2021-02-08 22:17:47][127.0.0.1:65088] [접속시도중]:(1/1)
【계정】gmlucky【케릭】메티스【오후】10:18분【IP】127.0.0.1【M】431
[2021-02-08 22:18:05][127.0.0.1:65098] [접속시도중]:(2/2)
【계정】alska1420【케릭】레쓰비【오후】10:18분【IP】127.0.0.1【M】449
[2021-02-08 22:26:50][167.248.133.37:52338] [접속시도중]:(1/3)

[2021-02-08 22:26:50][167.248.133.37:52338] 연결 종료[비정상(팅김)].

[2021-02-08 22:26:50][167.248.133.37:52338] 연결 종료[정상]
-------------------------------------------------------------------------------
[럭키서버] version 1.0
[럭키서버] 김행운
[럭키서버] 푸들
-------------------------------------------------------------------------------
invalid action code 95
invalid action code 96
invalid action code 97
서버 로딩 시작 : 2021년 02월08일 22시33분15초
-------------------------------------------------------------------------------
 [SERVER IP] => 211.194.13.230
 [SERVER PORT] => 2000
-------------------------------------------------------------------------------
 [배	율] 경험치: x40000.0 / 아데나: x210.0 / 아이템: x35.0
-------------------------------------------------------------------------------
 [인챈트] 무기: +6% / 방어구: +16% / 장신구: +13%
-------------------------------------------------------------------------------
[2021-02-08 22:33:36][127.0.0.1:49432] [접속시도중]:(1/1)
【계정】gmlucky【케릭】메티스【오후】10:33분【IP】127.0.0.1【M】429
-------------------------------------------------------------------------------
[럭키서버] version 1.0
[럭키서버] 김행운
[럭키서버] 푸들
-------------------------------------------------------------------------------
invalid action code 95
invalid action code 96
invalid action code 97
서버 로딩 시작 : 2021년 02월08일 22시39분25초
-------------------------------------------------------------------------------
 [SERVER IP] => 211.194.13.230
 [SERVER PORT] => 2000
-------------------------------------------------------------------------------
 [배	율] 경험치: x40000.0 / 아데나: x210.0 / 아이템: x35.0
-------------------------------------------------------------------------------
 [인챈트] 무기: +6% / 방어구: +16% / 장신구: +13%
-------------------------------------------------------------------------------
[2021-02-08 22:39:50][127.0.0.1:49707] [접속시도중]:(1/1)
【계정】gmlucky【케릭】메티스【오후】10:39분【IP】127.0.0.1【M】330
1C 33 C8 83 61 35 EF E1 65 E5 CE 33 AC DA 20 A9 74 07 B0 C2
게임종료: [메티스] 계정 [gmlucky] IP [127.0.0.1]
[2021-02-08 23:04:53][127.0.0.1:49707] 연결 종료[정상]
-------------------------------------------------------------------------------
[럭키서버] version 1.0
[럭키서버] 김행운
[럭키서버] 푸들
-------------------------------------------------------------------------------
invalid action code 95
invalid action code 96
invalid action code 97
서버 로딩 시작 : 2021년 02월08일 23시41분26초
-------------------------------------------------------------------------------
 [SERVER IP] => 211.194.13.230
 [SERVER PORT] => 2000
-------------------------------------------------------------------------------
 [배	율] 경험치: x40000.0 / 아데나: x210.0 / 아이템: x35.0
-------------------------------------------------------------------------------
 [인챈트] 무기: +6% / 방어구: +16% / 장신구: +13%
-------------------------------------------------------------------------------
[2021-02-08 23:42:06][127.0.0.1:51888] [접속시도중]:(1/1)
계정생성:【gmlucky】 / IP:【127.0.0.1】 / 시간:【오후 11시42】분
케릭터 생성: [메티스요] 시간: [오후 11시42분] 생성
【계정】gmlucky【케릭】메티스【오후】11:43분【IP】127.0.0.1【M】443
-------------------------------------------------------------------------------
[럭키서버] version 1.0
[럭키서버] 김행운
[럭키서버] 푸들
-------------------------------------------------------------------------------
invalid action code 95
invalid action code 96
invalid action code 97
서버 로딩 시작 : 2021년 02월08일 23시53분06초
-------------------------------------------------------------------------------
 [SERVER IP] => 211.194.13.230
 [SERVER PORT] => 2000
-------------------------------------------------------------------------------
 [배	율] 경험치: x40000.0 / 아데나: x210.0 / 아이템: x35.0
-------------------------------------------------------------------------------
 [인챈트] 무기: +6% / 방어구: +16% / 장신구: +13%
-------------------------------------------------------------------------------
[2021-02-08 23:53:34][127.0.0.1:59437] [접속시도중]:(1/1)
【계정】gmlucky【케릭】메티스【오후】11:53분【IP】127.0.0.1【M】475  
NULL 원인 스킬아이디 :
