-------------------------------------------------------------------------------
[럭키서버] version 1.0
[럭키서버] 김행운
[럭키서버] 푸들
-------------------------------------------------------------------------------
invalid action code 95
invalid action code 96
invalid action code 97
서버 로딩 시작 : 2022년 02월03일 12시51분47초
-------------------------------------------------------------------------------
 [SERVER IP] => 211.194.13.230
 [SERVER PORT] => 2000
-------------------------------------------------------------------------------
 [배	율] 경험치: x40000.0 / 아데나: x210.0 / 아이템: x35.0
-------------------------------------------------------------------------------
 [인챈트] 무기: +6% / 방어구: +16% / 장신구: +13%
-------------------------------------------------------------------------------
[2022-02-03 12:52:28][127.0.0.1:61068] [접속시도중]:(1/1)
【계정】gmlucky【케릭】메티스【오후】0:52분【IP】127.0.0.1【M】403
[2022-02-03 13:22:59][159.203.102.122:52369] [접속시도중]:(1/2)
[2022-02-03 13:23:30][159.203.102.122:52369] 연결 종료[비정상(팅김)].

[2022-02-03 13:23:30][159.203.102.122:52369] 연결 종료[정상]
게임종료: [메티스] 계정 [gmlucky] IP [127.0.0.1]
[2022-02-03 15:25:54][127.0.0.1:61068] 연결 종료[정상]
[2022-02-03 20:41:54][192.241.200.24:34010] [접속시도중]:(1/1)

[2022-02-03 20:41:55][192.241.200.24:34010] 연결 종료[정상]
-------------------------------------------------------------------------------
[럭키서버] version 1.0
[럭키서버] 김행운
[럭키서버] 푸들
-------------------------------------------------------------------------------
invalid action code 95
invalid action code 96
invalid action code 97
서버 로딩 시작 : 2022년 02월03일 21시09분35초
-------------------------------------------------------------------------------
 [SERVER IP] => 211.194.13.230
 [SERVER PORT] => 2000
-------------------------------------------------------------------------------
 [배	율] 경험치: x40000.0 / 아데나: x210.0 / 아이템: x35.0
-------------------------------------------------------------------------------
 [인챈트] 무기: +6% / 방어구: +16% / 장신구: +13%
-------------------------------------------------------------------------------
-------------------------------------------------------------------------------
[럭키서버] version 1.0
[럭키서버] 김행운
[럭키서버] 푸들
-------------------------------------------------------------------------------
invalid action code 95
invalid action code 96
invalid action code 97
서버 로딩 시작 : 2022년 02월03일 22시55분41초
-------------------------------------------------------------------------------
 [SERVER IP] => 211.194.13.230
 [SERVER PORT] => 2000
-------------------------------------------------------------------------------
 [배	율] 경험치: x40000.0 / 아데나: x210.0 / 아이템: x35.0
-------------------------------------------------------------------------------
 [인챈트] 무기: +6% / 방어구: +16% / 장신구: +13%
-------------------------------------------------------------------------------
[2022-02-03 22:56:09][127.0.0.1:63910] [접속시도중]:(1/1)
【계정】gmlucky【케릭】메티스【오후】10:56분【IP】127.0.0.1【M】440
게임종료: [메티스] 계정 [gmlucky] IP [127.0.0.1]
[2022-02-03 23:08:04][127.0.0.1:63910] 연결 종료[정상]
[2022-02-03 23:51:24][45.145.67.224:61925] [접속시도중]:(1/1)

[2022-02-03 23:51:24][45.145.67.224:61925] ■ 패킷공격(의심) ■

[2022-02-03 23:51:24][45.145.67.224:61925] 연결 종료[정상]
