2022-02-03 21:16:18	삭제	fjrzl11:[초코파이]	[362268558]축복받은 마법인형: 발라카스
2022-02-03 21:18:14	삭제	kjha12:[쿠쿠밥솥]	[365306361]+7고대 암석 장갑
2022-02-03 21:18:14	삭제	kjha12:[쿠쿠밥솥]	[363601537]+7고대 암석 부츠
2022-02-03 21:18:14	삭제	kjha12:[쿠쿠밥솥]	[363085944]+8고대 암석 망토
2022-02-03 21:18:14	삭제	kjha12:[쿠쿠밥솥]	[363506497]+7고대 암석 각반
2022-02-03 21:18:14	삭제	kjha12:[쿠쿠밥솥]	[362271485]+10축복받은 화룡의 티셔츠
2022-02-03 21:18:14	삭제	kjha12:[쿠쿠밥솥]	[371978908]반역자의 투구
2022-02-03 21:18:18	삭제	kjha12:[쿠쿠밥솥]	[362030685]+10실프의 티셔츠
2022-02-03 21:20:06	삭제	sdh0722:[트랭크스]	[372731573]가이아의 격노
2022-02-03 21:20:06	삭제	sdh0722:[트랭크스]	[362332729]+9축복받은 룸티스의 붉은빛 귀걸이
2022-02-03 21:20:06	삭제	sdh0722:[트랭크스]	[364957403]+9축복받은 룸티스의 검은빛 귀걸이
2022-02-03 21:20:06	삭제	sdh0722:[트랭크스]	[362188932]+10신성한 영생의 목걸이
2022-02-03 21:20:06	삭제	sdh0722:[트랭크스]	[362155851]+10고대 암석 망토
2022-02-03 21:20:06	삭제	sdh0722:[트랭크스]	[371534779]+9거대 여왕 개미의 금빛 날개
2022-02-03 21:20:09	삭제	sdh0722:[트랭크스]	[365378188]+5투명 망토
2022-02-03 21:21:50	삭제	wkdeodn:[용이]	[362032929]+9축복받은 스냅퍼의 체력 반지
2022-02-03 21:21:50	삭제	wkdeodn:[용이]	[362032893]+9축복받은 스냅퍼의 체력 반지
2022-02-03 21:21:50	삭제	wkdeodn:[용이]	[363495768]+10신성한 영생의 목걸이
2022-02-03 21:21:50	삭제	wkdeodn:[용이]	[362107521]+10크로노스의 벨트
2022-02-03 21:21:50	삭제	wkdeodn:[용이]	[373391055]투명 망토
2022-02-03 21:21:50	삭제	wkdeodn:[용이]	[373374960]암흑룡의 티셔츠
2022-02-03 21:21:50	삭제	wkdeodn:[용이]	[373379747]+5암흑룡의 티셔츠
2022-02-03 21:21:50	삭제	wkdeodn:[용이]	[373387888]반역자의 투구
2022-02-03 21:21:50	삭제	wkdeodn:[용이]	[373391066]악운의 단검
2022-02-03 21:21:52	삭제	wkdeodn:[용이]	[362270446]+8실프의 티셔츠
2022-02-03 21:25:21	삭제	oeh3581:[킹대포]	[362235307]+8축복받은 스냅퍼의 체력 반지
2022-02-03 21:25:21	삭제	oeh3581:[킹대포]	[362006373]+9축복받은 스냅퍼의 체력 반지
2022-02-03 21:27:06	삭제	asdf2:[호크아이]	[369572063]축복받은 마법인형: 린드비오르
2022-02-03 21:29:11	삭제	tlsalsgk19:[시스테마]	[364930820]+9축복받은 룸티스의 검은빛 귀걸이
2022-02-03 21:29:11	삭제	tlsalsgk19:[시스테마]	[364979743]+7완력의 부츠
2022-02-03 21:29:11	삭제	tlsalsgk19:[시스테마]	[364940227]+8은기사의 견갑
2022-02-03 21:29:11	삭제	tlsalsgk19:[시스테마]	[367227207]+10크로노스의 벨트
2022-02-03 21:29:11	삭제	tlsalsgk19:[시스테마]	[369591978]+7지휘관의 투구
2022-02-03 21:29:11	삭제	tlsalsgk19:[시스테마]	[367911938]+8격분의 장갑
2022-02-03 21:29:11	삭제	tlsalsgk19:[시스테마]	[366584357]+5오우거 킹의 벨트
2022-02-03 21:29:11	삭제	tlsalsgk19:[시스테마]	[371112606]+5투명 망토
2022-02-03 21:29:13	삭제	tlsalsgk19:[시스테마]	[370798124]+8거대 여왕 개미의 금빛 날개
2022-02-03 21:29:19	삭제	tlsalsgk19:[시스테마]	[364977535]+7유니콘의 완력 각반
2022-02-03 21:29:19	삭제	tlsalsgk19:[시스테마]	[365010080]+9축복받은 룸티스의 붉은빛 귀걸이
2022-02-03 21:29:21	삭제	tlsalsgk19:[시스테마]	[367227206]+10신성한 영생의 목걸이
2022-02-03 21:29:23	삭제	tlsalsgk19:[시스테마]	[364939335]+7실프의 티셔츠
2022-02-03 21:29:38	삭제	tlsalsgk19:[시스테마]	[367282974]축복받은 마법인형: 발라카스
