[2021-04-01 07:42:30] 엔피씨 : 럭키서버^버프 상인, 캐릭명 : 혁이, 아이템 : 근거리 버프물약, 갯수 : 5, 가격 : 7750000
[2021-04-01 07:42:37] 엔피씨 : 럭키서버^잡화 상인, 캐릭명 : 혁이, 아이템 : 결정체, 갯수 : 20, 가격 : 2000000
[2021-04-01 07:42:43] 엔피씨 : 럭키서버^버프 상인, 캐릭명 : 혁이, 아이템 : 근거리 버프물약, 갯수 : 15, 가격 : 23250000
