-------------------------------------------------------------------------------
[럭키서버] version 1.0
[럭키서버] 김행운
[럭키서버] 푸들
-------------------------------------------------------------------------------
invalid action code 95
invalid action code 96
invalid action code 97
서버 로딩 시작 : 2021년 11월03일 23시07분23초
-------------------------------------------------------------------------------
 [SERVER IP] => 211.194.13.230
 [SERVER PORT] => 2000
-------------------------------------------------------------------------------
 [배	율] 경험치: x40000.0 / 아데나: x210.0 / 아이템: x35.0
-------------------------------------------------------------------------------
 [인챈트] 무기: +6% / 방어구: +16% / 장신구: +13%
-------------------------------------------------------------------------------
[2021-11-03 23:07:53][127.0.0.1:56035] [접속시도중]:(1/1)
계정생성:【gmlucky】 / IP:【127.0.0.1】 / 시간:【오후 11시8】분
케릭터 생성: [테텍] 시간: [오후 11시8분] 생성
【계정】gmlucky【케릭】테텍【오후】11:8분【IP】127.0.0.1【M】429
게임종료: [테텍] 계정 [gmlucky] IP [127.0.0.1]
【계정】gmlucky【케릭】메티스【오후】11:10분【IP】127.0.0.1【M】441
