2021-11-03 23:10:19	메티스: 누구 
2021-11-03 23:10:31	메티스: 아이템 
2021-11-03 23:10:37	메티스: 검색 0 운영
2021-11-03 23:10:39	메티스: 템 123123
2021-11-03 23:10:41	메티스: 아이템 123123
2021-11-03 23:11:46	메티스: 리로드 상점
2021-11-03 23:12:55	메티스: 리로드 상점
