510220
510220
3000351
447016
3000087
950012
510220
3000086
950006
447016
3000087
3000351
950007
447016
510220
3000086
743
950008
3000351
510220
744
950009
510220
3000086
510220
950010
3000087
447016
950011
3000351
510220
