2021-04-09 22:13:18	매니저: 선물 메티스요 500720 1000
2021-04-09 22:13:24	매니저: 선물 메티스요 소생주문서 1000
2021-04-09 22:14:47	매니저: 인챈트시스템 1 2
2021-04-09 22:15:35	매니저: 인챈트시스템 1 2
2021-04-09 22:16:15	매니저: 인챈트시스템 1 1
2021-04-09 22:17:19	매니저: 인챈트시스템 1 1
2021-04-09 22:18:02	매니저: 인챈트시스템 1 2
2021-04-09 22:57:55	매니저: 선물 메티스요 소생주문서 500
2021-04-09 22:58:00	매니저: 선물 메티스요 치킨쿠폰(소생))
2021-04-09 22:58:00	매니저: 선물 메티스요 치킨쿠폰(소생)
2021-04-09 22:58:11	매니저: 선물 메티스요 500720 500
2021-04-09 22:59:12	매니저: 인챈트시스템 1 1
2021-04-09 22:59:14	매니저: 인챈트시스템 1 2
2021-04-09 22:59:17	매니저: 선물 메티스요 500720 500
2021-04-09 22:59:20	매니저: 선물 메티스요 소생주문서 500
