-------------------------------------------------------------------------------
[럭키서버] version 1.0
[럭키서버] 김행운
[럭키서버] 푸들
-------------------------------------------------------------------------------
invalid action code 95
invalid action code 96
invalid action code 97
서버 로딩 시작 : 2021년 03월08일 08시21분55초
-------------------------------------------------------------------------------
 [SERVER IP] => 211.194.13.230
 [SERVER PORT] => 2000
-------------------------------------------------------------------------------
 [배	율] 경험치: x40000.0 / 아데나: x210.0 / 아이템: x35.0
-------------------------------------------------------------------------------
 [인챈트] 무기: +6% / 방어구: +16% / 장신구: +13%
-------------------------------------------------------------------------------
[2021-03-08 08:23:09][127.0.0.1:57614] [접속시도중]:(1/1)
계정생성:【gmlucky】 / IP:【127.0.0.1】 / 시간:【오전 8시23】분
케릭터 생성: [테스트] 시간: [오전 8시23분] 생성
【계정】gmlucky【케릭】테스트【오전】8:23분【IP】127.0.0.1【M】361
