2021-03-07 21:15:00	전체	[메티스]	\aDㄹ
2021-03-07 21:15:08	전체	[메티스]	\aDㅇㅇㅇㅇ
2021-03-07 21:15:13	전체	[메티스]	\aDㅋㅋㅋㅋㅋㅋㅋ
2021-03-07 21:15:26	전체	[메티스]	\aD\fMdd
2021-03-07 21:18:38	전체	[메티스]	\aDㄴㅇㅁㄻㄴㅇㄹ
2021-03-07 21:18:43	전체	[메티스]	\aD빠르게
