2022-02-02 00:00:54	메티스: 리로드 아이템스킬
2022-02-02 00:01:28	메티스: 리로드 아이템 스킬
2022-02-02 00:01:31	메티스: 리로드 아이템스킬
2022-02-02 00:01:50	메티스: 리로드 아이템스킬
2022-02-02 00:02:26	메티스: 리로드 아이템스킬
2022-02-02 00:02:32	메티스: 리로드 아이템스킬
2022-02-02 00:02:40	메티스: 아이템 40024
2022-02-02 00:02:43	메티스: 아이템 40024 999
2022-02-02 00:02:46	메티스: 아이템 40024 555
2022-02-02 00:03:34	메티스: 리로드 아이템스킬
2022-02-02 00:04:11	메티스: 리로드 아이템스킬
2022-02-02 00:08:52	메티스: 귀환 2
2022-02-02 00:10:19	메티스: 정보 지랄도풍년
2022-02-02 00:11:26	메티스: 아이템 마법망토 1 50
2022-02-02 00:18:49	메티스: 계정정보 셀
2022-02-02 00:18:51	메티스: 검사 셀 인벤
2022-02-02 00:19:00	메티스: 계정정보 셀
2022-02-02 00:25:03	메티스: 검색 1 고대
2022-02-02 00:25:14	메티스: 아이템 7000014 1 5 10 5
2022-02-02 00:25:15	메티스: 출두 셀
2022-02-02 00:25:18	메티스: 출두 셀
2022-02-02 00:25:21	메티스: 출두 체리
