-------------------------------------------------------------------------------
[럭키서버] version 1.0
[럭키서버] 김행운
[럭키서버] 푸들
-------------------------------------------------------------------------------
-------------------------------------------------------------------------------
[럭키서버] version 1.0
[럭키서버] 김행운
[럭키서버] 푸들
-------------------------------------------------------------------------------
-------------------------------------------------------------------------------
[럭키서버] version 1.0
[럭키서버] 김행운
[럭키서버] 푸들
-------------------------------------------------------------------------------
invalid action code 95
invalid action code 96
invalid action code 97
서버 로딩 시작 : 2021년 04월29일 20시26분54초
-------------------------------------------------------------------------------
 [SERVER IP] => 211.194.13.230
 [SERVER PORT] => 2000
-------------------------------------------------------------------------------
 [배	율] 경험치: x40000.0 / 아데나: x210.0 / 아이템: x35.0
-------------------------------------------------------------------------------
 [인챈트] 무기: +6% / 방어구: +16% / 장신구: +13%
-------------------------------------------------------------------------------
-------------------------------------------------------------------------------
[럭키서버] version 1.0
[럭키서버] 김행운
[럭키서버] 푸들
-------------------------------------------------------------------------------
invalid action code 95
invalid action code 96
invalid action code 97
서버 로딩 시작 : 2021년 04월29일 21시09분10초
-------------------------------------------------------------------------------
 [SERVER IP] => 211.194.13.230
 [SERVER PORT] => 2000
-------------------------------------------------------------------------------
 [배	율] 경험치: x40000.0 / 아데나: x210.0 / 아이템: x35.0
-------------------------------------------------------------------------------
 [인챈트] 무기: +6% / 방어구: +16% / 장신구: +13%
-------------------------------------------------------------------------------
[2021-04-29 21:10:13][127.0.0.1:58371] [접속시도중]:(1/1)
【계정】seoha0301【케릭】완장【오후】9:10분【IP】127.0.0.1【M】443
[2021-04-29 21:11:02][127.0.0.1:58377] [접속시도중]:(2/2)
게임종료: [완장] 계정 [seoha0301] IP [127.0.0.1]
[2021-04-29 21:11:19][127.0.0.1:58371] 연결 종료[정상]
【계정】gmlucky【케릭】메티스【오후】9:11분【IP】127.0.0.1【M】458
[2021-04-29 21:12:18][127.0.0.1:58380] [접속시도중]:(2/2)
그런 유저는 없습니다.
【계정】seoha0301【케릭】완장【오후】9:12분【IP】127.0.0.1【M】462
.혈탈퇴 [캐릭명] 입력
