2021-04-30 07:32:39	메티스: 계정검사 따이스끼
2021-04-30 07:33:23	메티스: 귀환 90
2021-04-30 07:33:28	메티스: 혈탈퇴 따이스끼
2021-04-30 07:47:46	매니저: 혈탈퇴 강한질
2021-04-30 07:47:49	매니저: 혈탈퇴 강한질
2021-04-30 16:49:29	메티스: 아이템 111017
2021-04-30 16:49:29	메티스: 아이템 1111018
2021-04-30 16:49:42	메티스: 아이템 111018
2021-04-30 16:50:09	메티스: 검색 0 큐브
2021-04-30 16:50:14	메티스: 아이템 4100132
2021-04-30 16:51:00	메티스: 리로드 아이템
2021-04-30 16:51:02	메티스: 아이템 고대의주머니
